{
    "products": [
        {
            "product_code": "DFZ",
            "title": "DFZ Kakarot",
            "description": "",
            "platform": "XboxTwo",
            "price": 39.9
        },
        {
            "product_code": "HELLO",
            "title": "HELLO Infinite",
            "platform": "XboxTwo",
            "price": 59.9
        },
        {
            "product_code": "FFVII",
            "title": "Final Funtasy VII",
            "platform": "PS6",
            "price": 69.9
        },
        {
            "product_code": "SFVI",
            "title": "Strict Fighter VI",
            "platform": "PS6",
            "price": 29.9
        },
        {
            "product_code": "YELDA",
            "title": "Yelda BotW",
            "platform": "Sweetch",
            "price": 49.9
        },
        {
            "product_code": "RETROID",
            "title": "Retroid Bread",
            "platform": "Sweetch",
            "price": 45.9
        }
    ],

    "vouchers": [
        {
            "name": "NOEL2020",
            "reduction": 0.12
        },
        {
            "name": "NOEL2021",
            "reduction": 0.5
        },
        {
            "name": "ANNIVERSAIRE",
            "reduction": 0.15
        },
        {
            "name": "SOLDES_ETE",
            "reduction": 0.25
        }
    ]
}
